data.knit
…
SWE

0.040

We now have 2 dataframes with the following variables :

country_code ISO code of the country

prop_men_diabetes or prop_women_diabetesthe average diabetes rate in a country in the 2000-2013 timeframe

Joining tables

For the last step of our tidying, we joined all four tables in one dataset with the country_code key :

#> # A tibble: 29 x 10
#> # Groups:   country_name [29]
#>    country_name   country_code avg_gdp prop_men_diabetes
#>    <chr>          <chr>          <dbl>             <dbl>
#>  1 Austria        AUT            336.             0.0532
#>  2 Belgium        BEL            407.             0.0573
#>  3 Bulgaria       BGR             37.4            0.0735
#>  4 Croatia        HRV             48.1            0.0713
#>  5 Cyprus         CYP             20.2            0.0769
#>  6 Czech Republic CZE            158.             0.0778
#>  7 Denmark        DNK            275.             0.0546
#>  8 Estonia        EST             16.5            0.0712
#>  9 Finland        FIN            217.             0.0657
#> 10 France         FRA           2283.             0.0709
#> # ... with 19 more rows, and 6 more variables:
#> #   prop_women_diabetes <dbl>, cal_prot_animal <dbl>,
#> #   cal_prot_plant <dbl>, cal_carbs <dbl>, cal_fat <dbl>,
#> #   total_consumption <dbl>
…
