European countries, their dietary habits and diabetes prevalence
…
Spotting mistakes and missing data (could be part of EDA too)

Listing anomalies and outliers (could be part of EDA too)

For our research, we used three different datasets. While searching for datasets, we made sure that the years and countries matched for every one of them.

Wrangling and cleaning

Caloric consumption

The first is the dataset with information related to caloric consumption. We downloaded it from the portal https://ourworldindata.org/diet-compositions. It is composed of many information related to caloric consumption for almost all countries in the world. It gives us information on the average nutrition of different countries from 1961 to 2013, and we have information about:

We only wanted to focus on observations from European countries with Switzerland and the UK in the 2000s, which is why we have sorted the data as follows:

#> # A tibble: 406 x 7
#>    Entity  Code   Year `Calories from animal ~ `Calories from plant ~
#>    <chr>   <chr> <dbl>                   <dbl>                  <dbl>
#>  1 Austria AUT    2000                    259.                   165.
#>  2 Austria AUT    2001                    259.                   168.
#>  3 Austria AUT    2002                    258.                   166.
#>  4 Austria AUT    2003                    240.                   168.
#>  5 Austria AUT    2004                    237.                   165.
#>  6 Austria AUT    2005                    242.                   169.
#>  7 Austria AUT    2006                    236.                   169.
#>  8 Austria AUT    2007                    242.                   173.
#>  9 Austria AUT    2008                    237.                   170.
#> 10 Austria AUT    2009                    240.                   170.
#> # ... with 396 more rows, and 2 more variables:
#> #   Calories from fat (FAO (2017)) <dbl>,
#> #   Calories from carbohydrates (FAO (2017)) <dbl>
…
It is composed of 266 observations of 65 variables :

Country Name Name of the country

Country Code ISO country code

Indicator Name equal to GDP in current US$ for every row

Indicator Code equal to NY.GDP.MKTP.CD for every row

And a variable for each year from 1960 to 2020

As we can see below, RStudio imported the Excel file as is, and so our column names found themselves at the 3rd row and therefore column names of columns 3 to 65 have been attributed numbers.

#> # A tibble: 269 x 65
#>    `Data Source` `World Developm~ ...3  ...4  ...5  ...6  ...7  ...8 
#>    <chr>         <chr>            <chr> <chr> <chr> <chr> <chr> <chr>
#>  1 Last Updated~ 44454            <NA>  <NA>  <NA>  <NA>  <NA>  <NA> 
#>  2 <NA>          <NA>             <NA>  <NA>  <NA>  <NA>  <NA>  <NA> 
#>  3 Country Name  Country Code     Indi~ Indi~ 1960  1961  1962  1963 
#>  4 Aruba         ABW              GDP ~ NY.G~ <NA>  <NA>  <NA>  <NA> 
#>  5 Africa Easte~ AFE              GDP ~ NY.G~ 1929~ 1970~ 2147~ 2570~
#>  6 Afghanistan   AFG              GDP ~ NY.G~ 5377~ 5488~ 5466~ 7511~
#>  7 Africa Weste~ AFW              GDP ~ NY.G~ 1040~ 1113~ 1194~ 1268~
#>  8 Angola        AGO              GDP ~ NY.G~ <NA>  <NA>  <NA>  <NA> 
#>  9 Albania       ALB              GDP ~ NY.G~ <NA>  <NA>  <NA>  <NA> 
#> 10 Andorra       AND              GDP ~ NY.G~ <NA>  <NA>  <NA>  <NA> 
#> # ... with 259 more rows, and 57 more variables: ...9 <chr>,
#> #   ...10 <chr>, ...11 <chr>, ...12 <chr>, ...13 <chr>, ...14 <chr>,
#> #   ...15 <chr>, ...16 <chr>, ...17 <chr>, ...18 <chr>, ...19 <chr>,
#> #   ...20 <chr>, ...21 <chr>, ...22 <chr>, ...23 <chr>, ...24 <chr>,
#> #   ...25 <chr>, ...26 <chr>, ...27 <chr>, ...28 <chr>, ...29 <chr>,
#> #   ...30 <chr>, ...31 <chr>, ...32 <chr>, ...33 <chr>, ...34 <chr>,
#> #   ...35 <chr>, ...36 <chr>, ...37 <chr>, ...38 <chr>, ...
…
Sex Gender for which the diabetes prevalence is measured in a certain country at a certain year

Year Year of observation (1980-2014)

Age-standardised diabetes prevalence Diabetes rate considering all ages

Lower 95% uncertainty interval Lower confidence interval limit for the diabetes rate

Upper 95% uncertainty interval Higher confidence interval limit for the diabetes rate

We filter our data to keep only observations between 2000 and 2013 (common interval between our 3 datasets).

We keep only European countries as our two first datasets:

#> # A tibble: 870 x 7
#>    `Country/Region/World` ISO   Sex    Year `Age-standardised diabet~
#>    <chr>                  <chr> <chr> <dbl>                     <dbl>
#>  1 Austria                AUT   Men    2000                    0.0514
#>  2 Austria                AUT   Men    2001                    0.0520
#>  3 Austria                AUT   Men    2002                    0.0525
#>  4 Austria                AUT   Men    2003                    0.0529
#>  5 Austria                AUT   Men    2004                    0.0532
#>  6 Austria                AUT   Men    2005                    0.0534
#>  7 Austria                AUT   Men    2006                    0.0535
#>  8 Austria                AUT   Men    2007                    0.0536
#>  9 Austria                AUT   Men    2008                    0.0536
#> 10 Austria                AUT   Men    2009                    0.0535
#> # ... with 860 more rows, and 2 more variables:
#> #   Lower 95% uncertainty interval <dbl>,
#> #   Upper 95% uncertainty interval <dbl>

We will not use the 95% confidence interval in our plots.

Now we will separate our dataset into two subsets. One with data about men :

#> # A tibble: 435 x 5
#>    country ISO   sex    year prop_diabetes
#>    <chr>   <chr> <chr> <dbl>         <dbl>
#>  1 Austria AUT   Men    2000        0.0514
#>  2 Austria AUT   Men    2001        0.0520
#>  3 Austria AUT   Men    2002        0.0525
#>  4 Austria AUT   Men    2003        0.0529
#>  5 Austria AUT   Men    2004        0.0532
#>  6 Austria AUT   Men    2005        0.0534
#>  7 Austria AUT   Men    2006        0.0535
#>  8 Austria AUT   Men    2007        0.0536
#>  9 Austria AUT   Men    2008        0.0536
#> 10 Austria AUT   Men    2009        0.0535
#> # ... with 425 more rows

Another one with data about women :

#> # A tibble: 435 x 5
#>    country ISO   sex    year prop_diabetes
#>    <chr>   <chr> <chr> <dbl>         <dbl>
#>  1 Austria AUT   Women  2000        0.0353
#>  2 Austria AUT   Women  2001        0.0353
#>  3 Austria AUT   Women  2002        0.0352
#>  4 Austria AUT   Women  2003        0.0351
#>  5 Austria AUT   Women  2004        0.0350
#>  6 Austria AUT   Women  2005        0.0348
#>  7 Austria AUT   Women  2006        0.0345
#>  8 Austria AUT   Women  2007        0.0342
#>  9 Austria AUT   Women  2008        0.0339
#> 10 Austria AUT   Women  2009        0.0335
#> # ... with 425 more rows

We change some column names to be more consistent between our datasets.

Finally we group observations by country to get the mean of prevalence of diabetes between 2000 and 2013 for each european countries :

For men :

#> # A tibble: 29 x 2
#>    country_code prop_men_diabetes
#>    <chr>                    <dbl>
#>  1 AUT                     0.0532
#>  2 BEL                     0.0573
#>  3 BGR                     0.0735
#>  4 CHE                     0.0498
#>  5 CYP                     0.0769
#>  6 CZE                     0.0778
#>  7 DEU                     0.0587
#>  8 DNK                     0.0546
#>  9 ESP                     0.0839
#> 10 EST                     0.0712
#> # ... with 19 more rows

*For women :

#> # A tibble: 29 x 2
#>    country_code prop_women_diabetes
#>    <chr>                      <dbl>
#>  1 AUT                       0.0340
#>  2 BEL                       0.0386
#>  3 BGR                       0.0640
#>  4 CHE                       0.0301
#>  5 CYP                       0.0561
#>  6 CZE                       0.0651
#>  7 DEU                       0.0399
#>  8 DNK                       0.0351
#>  9 ESP                       0.0588
#> 10 EST                       0.0641
#> # ... with 19 more rows

Joining tables

Finally, we joined all three tables in one dataset with the country_code key :

#> # A tibble: 29 x 10
#> # Groups:   country_name [29]
#>    country_name   country_code avg_gdp prop_men_diabetes
#>    <chr>          <chr>          <dbl>             <dbl>
#>  1 Austria        AUT            336.             0.0532
#>  2 Belgium        BEL            407.             0.0573
#>  3 Bulgaria       BGR             37.4            0.0735
#>  4 Croatia        HRV             48.1            0.0713
#>  5 Cyprus         CYP             20.2            0.0769
#>  6 Czech Republic CZE            158.             0.0778
#>  7 Denmark        DNK            275.             0.0546
#>  8 Estonia        EST             16.5            0.0712
#>  9 Finland        FIN            217.             0.0657
#> 10 France         FRA           2283.             0.0709
#> # ... with 19 more rows, and 6 more variables:
#> #   prop_women_diabetes <dbl>, cal_prot_animal <dbl>,
#> #   cal_prot_plant <dbl>, cal_carbs <dbl>, cal_fat <dbl>,
#> #   total_consumption <dbl>
…
